         0,   120,  1248
    149001,   416,   877
    298000,  1535,   854
    447000,  2551,  1162
    596000,  3340,  1705
    745000,  3637,  2298
    894000,  3340,  2720
   1043001,  2221,  2799
   1192000,  1205,  2497
   1341000,   416,  1924
   1490000,   120,  1307
   1639000,   416,   904
   1788001,  1535,   860
   1937000,  2551,  1160
   2086000,  3340,  1698
   2235000,  3637,  2292
   2384000,  3340,  2719
   2533001,  2221,  2804
   2682000,  1205,  2507
   2831000,   416,  1931
   2980000,   120,  1314
   3129001,   416,   905
   3278000,  1535,   858
   3427000,  2551,  1151
   3576000,  3340,  1687
   3725000,  3637,  2285
   3874000,  3340,  2712
   4023000,  2221,  2808
   4172001,  1205,  2514
   4321000,   416,  1943
