         0,  3121,  1721
     15000,  3603,  1730
     30001,  3340,  1740
     45000,  2551,  1762
     60000,  1535,  1792
     75000,   635,  1812
     90000,   153,  1811
    105000,   253,  1793
    120000,   901,  1770
    135001,  2221,  1741
    150001,  3121,  1727
    165001,  3603,  1722
    180001,  3503,  1739
    195000,  2855,  1767
    210000,  1878,  1795
    225001,   901,  1813
    240000,   153,  1816
    255000,   253,  1799
    270000,   901,  1778
    285000,  1878,  1753
    299999,  2855,  1739
    315000,  3503,  1725
    330001,  3503,  1743
    345001,  2855,  1766
    359999,  1878,  1791
    375000,   901,  1816
    390001,   253,  1816
    405000,   153,  1810
    420001,   635,  1784
    435001,  1878,  1759
