         0,  2855,  1740
     13001,  3503,  1734
     26001,  3603,  1740
     39000,  3121,  1755
     52000,  2221,  1779
     65001,  1205,  1795
     78001,   416,  1804
     91000,   120,  1797
    104001,   635,  1783
    117000,  1535,  1762
    130001,  2551,  1745
    143000,  3340,  1736
    156001,  3637,  1739
    169001,  3340,  1752
    182000,  2551,  1774
    195000,  1535,  1795
    208000,   635,  1800
    221001,   153,  1806
    234000,   253,  1789
    247001,  1205,  1775
    260001,  2221,  1757
    273001,  3121,  1741
    286001,  3603,  1742
    299000,  3503,  1745
    312000,  2855,  1771
    325001,  1878,  1793
    338001,   901,  1807
    351000,   253,  1807
    364001,   153,  1803
    377001,   901,  1784
