         0,   153,   593
    362000,   635,   581
    723999,  1535,   995
   1086000,  2551,  1699
   1447999,  3340,  2515
   1809999,  3603,  3091
   2172000,  3121,  3179
   2533999,  2221,  2738
   2896000,  1205,  1929
   3257999,   416,  1092
   3620000,   153,   612
   3981999,   635,   578
   4343999,  1535,   982
   4706000,  2551,  1685
   5068000,  3340,  2500
   5430000,  3603,  3088
   5791999,  3121,  3179
   6153999,  2221,  2746
   6516000,  1205,  1945
   6877999,   416,  1103
   7239999,   153,   609
   7602000,   635,   576
   7963999,  1535,   971
   8326000,  2551,  1673
   8688000,  3340,  2486
   9050000,  3603,  3082
   9412000,  3121,  3183
   9773999,  2221,  2757
  10136000,  1205,  1956
  10497999,   416,  1116
